module SafeTransfer

go 1.22.1

require (
	github.com/ethereum/go-ethereum v1.13.14
	github.com/go-chi/chi/v5 v5.0.12
	github.com/go-chi/cors v1.2.1
	github.com/golang-jwt/jwt v3.2.2+incompatible
	github.com/ipfs/go-ipfs-api v0.7.0
	github.com/jinzhu/gorm v1.9.16
	github.com/stretchr/testify v1.9.0
	gorm.io/driver/mysql v1.5.7
	gorm.io/gorm v1.25.8
)

require (
	github.com/benbjohnson/clock v1.3.5 // indirect
	github.com/blang/semver/v4 v4.0.0 // indirect
	github.com/btcsuite/btcd/btcec/v2 v2.2.2 // indirect
	github.com/crackcomm/go-gitignore v0.0.0-20231225121904-e25f5bc08668 // indirect
	github.com/davecgh/go-spew v1.1.1 // indirect
	github.com/decred/dcrd/dcrec/secp256k1/v4 v4.2.0 // indirect
	github.com/go-sql-driver/mysql v1.7.0 // indirect
	github.com/holiman/uint256 v1.2.4 // indirect
	github.com/ipfs/boxo v0.18.0 // indirect
	github.com/ipfs/go-cid v0.4.1 // indirect
	github.com/jinzhu/inflection v1.0.0 // indirect
	github.com/jinzhu/now v1.1.5 // indirect
	github.com/klauspost/cpuid/v2 v2.2.7 // indirect
	github.com/libp2p/go-buffer-pool v0.1.0 // indirect
	github.com/libp2p/go-flow-metrics v0.1.0 // indirect
	github.com/libp2p/go-libp2p v0.32.2 // indirect
	github.com/minio/sha256-simd v1.0.1 // indirect
	github.com/mitchellh/go-homedir v1.1.0 // indirect
	github.com/mr-tron/base58 v1.2.0 // indirect
	github.com/multiformats/go-base32 v0.1.0 // indirect
	github.com/multiformats/go-base36 v0.2.0 // indirect
	github.com/multiformats/go-multiaddr v0.12.2 // indirect
	github.com/multiformats/go-multibase v0.2.0 // indirect
	github.com/multiformats/go-multicodec v0.9.0 // indirect
	github.com/multiformats/go-multihash v0.2.3 // indirect
	github.com/multiformats/go-multistream v0.5.0 // indirect
	github.com/multiformats/go-varint v0.0.7 // indirect
	github.com/pmezard/go-difflib v1.0.0 // indirect
	github.com/rogpeppe/go-internal v1.11.0 // indirect
	github.com/spaolacci/murmur3 v1.1.0 // indirect
	golang.org/x/crypto v0.21.0 // indirect
	golang.org/x/exp v0.0.0-20240318143956-a85f2c67cd81 // indirect
	golang.org/x/sys v0.18.0 // indirect
	google.golang.org/protobuf v1.33.0 // indirect
	gopkg.in/check.v1 v1.0.0-20201130134442-10cb98267c6c // indirect
	gopkg.in/yaml.v3 v3.0.1 // indirect
	lukechampine.com/blake3 v1.2.1 // indirect
)
